pattern_detector/work/transcript
# //  Questa Sim-64
# //  Version 2024.2 linux_x86_64 May 20 2024
# //
# // Unpublished work. Copyright 2024 Siemens
# //
# // This material contains trade secrets or otherwise confidential information
# // owned by Siemens Industry Software Inc. or its affiliates (collectively,
# // "SISW"), or its licensors. Access to and use of this information is strictly
# // limited as set forth in the Customer's applicable agreements with SISW.
# //
# // This material may not be copied, distributed, or otherwise disclosed outside
# // of the Customer's facilities without the express written permission of SISW,
# // and may not be used in any way not expressly authorized by SISW.
# //
project open /u/koushik/system_verilog/System-verilog/pattern_detector/work/pattern_detector.mpf
# Loading project pattern_detector
# Compile of pattern_detector.sv was successful.
vsim work.top
# vsim work.top 
# Start time: 09:49:01 on Nov 07,2024
# ** Note: (vsim-3812) Design is being optimized...
# Loading sv_std.std
# Loading work.top(fast)
add wave -r /*
# ** UI-Msg (Warning): (vish-4014) No objects found matching '/*'.
run
# time =                    5, out = 0, in = 0
# time =                   10, out = 0, in = 1
# time =                   15, out = 0, in = 1
# time =                   20, out = 0, in = 1
# time =                   25, out = 0, in = 1
# time =                   30, out = 0, in = 1
# time =                   35, out = 0, in = 1
# time =                   40, out = 0, in = 0
# time =                   45, out = 0, in = 1
# time =                   50, out = 0, in = 1
# Compile of pattern_detector.sv was successful.
vsim work.top
# End time: 09:50:06 on Nov 07,2024, Elapsed time: 0:01:05
# Errors: 0, Warnings: 3
# vsim work.top 
# Start time: 09:50:06 on Nov 07,2024
# ** Note: (vsim-3813) Design is being optimized due to module recompilation...
# Loading sv_std.std
# Loading work.top(fast)
run
# time =                    5, out = 0, in = 0
# time =                   10, out = 0, in = 1
# time =                   15, out = 0, in = 1
# time =                   20, out = 0, in = 1
# time =                   25, out = 0, in = 1
# time =                   30, out = 0, in = 1
# time =                   35, out = 0, in = 1
# time =                   40, out = 0, in = 0
# time =                   45, out = 0, in = 1
# time =                   50, out = 0, in = 1
# time =                   55, out = 0, in = 0
# time =                   60, out = 0, in = 1
# time =                   65, out = 0, in = 1
# time =                   70, out = 0, in = 0
# time =                   75, out = 0, in = 1
# time =                   80, out = 0, in = 0
# time =                   85, out = 0, in = 1
# time =                   90, out = 0, in = 0
# time =                   95, out = 0, in = 1
# time =                  100, out = 0, in = 1
# time =                  105, out = 0, in = 0
# time =                  110, out = 0, in = 1
# time =                  115, out = 0, in = 0
# time =                  120, out = 0, in = 0
# time =                  125, out = 0, in = 0
# time =                  130, out = 0, in = 1
# time =                  135, out = 0, in = 0
# time =                  140, out = 0, in = 1
# time =                  145, out = 0, in = 1
# time =                  150, out = 0, in = 1
# time =                  155, out = 0, in = 1
# time =                  160, out = 0, in = 0
# time =                  165, out = 0, in = 0
# time =                  170, out = 0, in = 0
# time =                  175, out = 0, in = 0
# time =                  180, out = 0, in = 1
# time =                  185, out = 0, in = 0
# time =                  190, out = 0, in = 1
# time =                  195, out = 0, in = 1
# Compile of pattern_detector.sv was successful.
vsim work.top
# End time: 09:55:29 on Nov 07,2024, Elapsed time: 0:05:23
# Errors: 0, Warnings: 2
# vsim work.top 
# Start time: 09:55:29 on Nov 07,2024
# ** Note: (vsim-3813) Design is being optimized due to module recompilation...
# Loading sv_std.std
# Loading work.top(fast)
run -all
# time =                    5, out = 0, in = 0
# time =                   10, out = 0, in = 1
# time =                   15, out = 0, in = 1
# time =                   20, out = 0, in = 1
# time =                   25, out = 0, in = 1
# time =                   30, out = 0, in = 1
# time =                   35, out = 0, in = 1
# time =                   40, out = 0, in = 0
# time =                   45, out = 0, in = 1
# time =                   50, out = 0, in = 1
# time =                   55, out = 0, in = 0
# time =                   60, out = 0, in = 1
# time =                   65, out = 0, in = 1
# time =                   70, out = 0, in = 0
# time =                   75, out = 0, in = 1
# time =                   80, out = 0, in = 0
# time =                   85, out = 0, in = 1
# time =                   90, out = 0, in = 0
# time =                   95, out = 0, in = 1
# time =                  100, out = 0, in = 1
# time =                  105, out = 0, in = 0
# time =                  110, out = 0, in = 1
# time =                  115, out = 0, in = 0
# time =                  120, out = 0, in = 0
# time =                  125, out = 0, in = 0
# time =                  130, out = 0, in = 1
# time =                  135, out = 0, in = 0
# time =                  140, out = 0, in = 1
# time =                  145, out = 0, in = 1
# time =                  150, out = 0, in = 1
# time =                  155, out = 0, in = 1
# time =                  160, out = 0, in = 0
# time =                  165, out = 0, in = 0
# time =                  170, out = 0, in = 0
# time =                  175, out = 0, in = 0
# time =                  180, out = 0, in = 1
# time =                  185, out = 0, in = 0
# time =                  190, out = 0, in = 1
# time =                  195, out = 0, in = 1
# time =                  200, out = 0, in = 1
# time =                  205, out = 0, in = 1
# time =                  210, out = 0, in = 1
# time =                  215, out = 0, in = 0
# time =                  220, out = 0, in = 0
# time =                  225, out = 0, in = 1
# time =                  230, out = 0, in = 1
# time =                  235, out = 0, in = 1
# time =                  240, out = 0, in = 0
# time =                  245, out = 0, in = 0
# time =                  250, out = 0, in = 0
# time =                  255, out = 0, in = 0
# time =                  260, out = 0, in = 0
# time =                  265, out = 0, in = 1
# time =                  270, out = 0, in = 0
# time =                  275, out = 0, in = 0
# time =                  280, out = 0, in = 1
# time =                  285, out = 0, in = 1
# time =                  290, out = 0, in = 0
# time =                  295, out = 1, in = 0
# time =                  300, out = 1, in = 0
# time =                  305, out = 0, in = 0
# time =                  310, out = 0, in = 0
# time =                  315, out = 0, in = 1
# time =                  320, out = 0, in = 1
# time =                  325, out = 0, in = 1
# time =                  330, out = 0, in = 1
# time =                  335, out = 0, in = 1
# time =                  340, out = 0, in = 0
# time =                  345, out = 0, in = 0
# time =                  350, out = 0, in = 1
# time =                  355, out = 0, in = 1
# time =                  360, out = 0, in = 1
# time =                  365, out = 1, in = 0
# time =                  370, out = 1, in = 0
# time =                  375, out = 0, in = 1
# time =                  380, out = 0, in = 1
# time =                  385, out = 0, in = 0
# time =                  390, out = 0, in = 1
# time =                  395, out = 0, in = 1
# time =                  400, out = 0, in = 0
# time =                  405, out = 0, in = 1
# time =                  410, out = 0, in = 1
# time =                  415, out = 0, in = 1
# time =                  420, out = 0, in = 0
# time =                  425, out = 0, in = 1
# time =                  430, out = 0, in = 1
# time =                  435, out = 0, in = 0
# time =                  440, out = 0, in = 0
# time =                  445, out = 0, in = 0
# time =                  450, out = 0, in = 0
# time =                  455, out = 0, in = 1
# time =                  460, out = 0, in = 1
# time =                  465, out = 1, in = 0
# time =                  470, out = 1, in = 0
# time =                  475, out = 0, in = 1
# time =                  480, out = 0, in = 1
# time =                  485, out = 0, in = 1
# time =                  490, out = 0, in = 1
# time =                  495, out = 0, in = 1
# time =                  500, out = 0, in = 0
# Compile of pattern_detector.sv was successful.
# Compile of pattern_detector.sv was successful.
vsim work.top
# End time: 10:05:20 on Nov 07,2024, Elapsed time: 0:09:51
# Errors: 0, Warnings: 3
# vsim work.top 
# Start time: 10:05:20 on Nov 07,2024
# ** Note: (vsim-3813) Design is being optimized due to module recompilation...
# Loading sv_std.std
# Loading work.top(fast)
run -all
# time =                    5, out = x, in = 0
# time =                   10, out = x, in = 1
# time =                   15, out = x, in = 1
# time =                   20, out = x, in = 1
# time =                   25, out = x, in = 1
# time =                   30, out = x, in = 1
# time =                   35, out = x, in = 1
# time =                   40, out = x, in = 0
# time =                   45, out = x, in = 1
# time =                   50, out = x, in = 1
# time =                   55, out = x, in = 0
# time =                   60, out = x, in = 1
# time =                   65, out = x, in = 1
# time =                   70, out = x, in = 0
# time =                   75, out = x, in = 1
# time =                   80, out = x, in = 0
# time =                   85, out = x, in = 1
# time =                   90, out = x, in = 0
# time =                   95, out = x, in = 1
# time =                  100, out = x, in = 1
# time =                  105, out = x, in = 0
# time =                  110, out = x, in = 1
# time =                  115, out = x, in = 0
# time =                  120, out = x, in = 0
# time =                  125, out = x, in = 0
# time =                  130, out = x, in = 1
# time =                  135, out = x, in = 0
# time =                  140, out = x, in = 1
# time =                  145, out = x, in = 1
# time =                  150, out = x, in = 1
# time =                  155, out = x, in = 1
# time =                  160, out = x, in = 0
# time =                  165, out = x, in = 0
# time =                  170, out = x, in = 0
# time =                  175, out = x, in = 0
# time =                  180, out = x, in = 1
# time =                  185, out = x, in = 0
# time =                  190, out = x, in = 1
# time =                  195, out = x, in = 1
# time =                  200, out = x, in = 1
# time =                  205, out = x, in = 1
# time =                  210, out = x, in = 1
# time =                  215, out = x, in = 0
# time =                  220, out = x, in = 0
# time =                  225, out = x, in = 1
# time =                  230, out = x, in = 1
# time =                  235, out = x, in = 1
# time =                  240, out = x, in = 0
# time =                  245, out = x, in = 0
# time =                  250, out = x, in = 0
# Compile of pattern_detector.sv was successful.
vsim work.top
# End time: 10:06:16 on Nov 07,2024, Elapsed time: 0:00:56
# Errors: 0, Warnings: 2
# vsim work.top 
# Start time: 10:06:16 on Nov 07,2024
# ** Note: (vsim-3813) Design is being optimized due to module recompilation...
# Loading sv_std.std
# Loading work.top(fast)
run -all
# time =                    5, out = 0, in = 0
# time =                   10, out = 0, in = 1
# time =                   15, out = 0, in = 1
# time =                   20, out = 0, in = 1
# time =                   25, out = 0, in = 1
# time =                   30, out = 0, in = 1
# time =                   35, out = 0, in = 1
# time =                   40, out = 0, in = 0
# time =                   45, out = 0, in = 1
# time =                   50, out = 0, in = 1
# time =                   55, out = 0, in = 0
# time =                   60, out = 0, in = 1
# time =                   65, out = 0, in = 1
# time =                   70, out = 0, in = 0
# time =                   75, out = 0, in = 1
# time =                   80, out = 0, in = 0
# time =                   85, out = 0, in = 1
# time =                   90, out = 0, in = 0
# time =                   95, out = 0, in = 1
# time =                  100, out = 0, in = 1
# time =                  105, out = 0, in = 0
# time =                  110, out = 0, in = 1
# time =                  115, out = 0, in = 0
# time =                  120, out = 0, in = 0
# time =                  125, out = 0, in = 0
# time =                  130, out = 0, in = 1
# time =                  135, out = 0, in = 0
# time =                  140, out = 0, in = 1
# time =                  145, out = 0, in = 1
# time =                  150, out = 0, in = 1
# time =                  155, out = 0, in = 1
# time =                  160, out = 0, in = 0
# time =                  165, out = 0, in = 0
# time =                  170, out = 0, in = 0
# time =                  175, out = 0, in = 0
# time =                  180, out = 0, in = 1
# time =                  185, out = 0, in = 0
# time =                  190, out = 0, in = 1
# time =                  195, out = 0, in = 1
# time =                  200, out = 0, in = 1
# time =                  205, out = 0, in = 1
# time =                  210, out = 0, in = 1
# time =                  215, out = 0, in = 0
# time =                  220, out = 0, in = 0
# time =                  225, out = 0, in = 1
# time =                  230, out = 0, in = 1
# time =                  235, out = 0, in = 1
# time =                  240, out = 0, in = 0
# time =                  245, out = 0, in = 0
# time =                  250, out = 0, in = 0
# Compile of pattern_detector.sv was successful.
vsim work.top
# End time: 10:09:29 on Nov 07,2024, Elapsed time: 0:03:13
# Errors: 0, Warnings: 2
# vsim work.top 
# Start time: 10:09:29 on Nov 07,2024
# ** Note: (vsim-3813) Design is being optimized due to module recompilation...
# Loading sv_std.std
# Loading work.top(fast)
run -all
# time =                   10, out = 0, in = 0
# time =                   20, out = 0, in = 1
# time =                   30, out = 0, in = 1
# time =                   40, out = 0, in = 1
# time =                   50, out = 0, in = 1
# time =                   60, out = 0, in = 1
# time =                   70, out = 0, in = 1
# time =                   80, out = 0, in = 0
# time =                   90, out = 0, in = 1
# time =                  100, out = 0, in = 1
# time =                  110, out = 0, in = 0
# time =                  120, out = 0, in = 1
# time =                  130, out = 0, in = 1
# time =                  140, out = 0, in = 0
# time =                  150, out = 0, in = 1
# time =                  160, out = 0, in = 0
# time =                  165, out = 1, in = 0
# time =                  170, out = 1, in = 1
# time =                  175, out = 0, in = 1
# time =                  180, out = 0, in = 0
# time =                  190, out = 0, in = 1
# time =                  200, out = 0, in = 1
# time =                  210, out = 0, in = 0
# time =                  220, out = 0, in = 1
# time =                  230, out = 0, in = 0
# time =                  235, out = 1, in = 0
# time =                  240, out = 1, in = 0
# time =                  245, out = 0, in = 0
# time =                  250, out = 0, in = 0
# time =                  260, out = 0, in = 1
# time =                  270, out = 0, in = 0
# time =                  280, out = 0, in = 1
# time =                  290, out = 0, in = 1
# time =                  300, out = 0, in = 1
# time =                  310, out = 0, in = 1
# time =                  320, out = 0, in = 0
# time =                  330, out = 0, in = 0
# time =                  340, out = 0, in = 0
# time =                  350, out = 0, in = 0
# time =                  360, out = 0, in = 1
# time =                  370, out = 0, in = 0
# time =                  380, out = 0, in = 1
# time =                  390, out = 0, in = 1
# time =                  400, out = 0, in = 1
# time =                  410, out = 0, in = 1
# time =                  420, out = 0, in = 1
# time =                  430, out = 0, in = 0
# time =                  440, out = 0, in = 0
# time =                  450, out = 0, in = 1
# time =                  460, out = 0, in = 1
# time =                  470, out = 0, in = 1
# time =                  480, out = 0, in = 0
# time =                  490, out = 0, in = 0
# time =                  500, out = 0, in = 0
# Compile of pattern_detector.sv was successful.
vsim work.top
# End time: 10:10:59 on Nov 07,2024, Elapsed time: 0:01:30
# Errors: 0, Warnings: 2
# vsim work.top 
# Start time: 10:11:00 on Nov 07,2024
# ** Note: (vsim-3813) Design is being optimized due to module recompilation...
# Loading sv_std.std
# Loading work.top(fast)
run -all
# time =                   10, out = 0, in = 0
# time =                   20, out = 0, in = 1
# time =                   30, out = 0, in = 1
# time =                   40, out = 0, in = 1
# time =                   50, out = 0, in = 1
# time =                   60, out = 0, in = 1
# time =                   70, out = 0, in = 1
# time =                   80, out = 0, in = 0
# time =                   90, out = 0, in = 1
# time =                  100, out = 0, in = 1
# time =                  110, out = 0, in = 0
# time =                  120, out = 0, in = 1
# time =                  130, out = 0, in = 1
# time =                  140, out = 0, in = 0
# time =                  150, out = 0, in = 1
# time =                  160, out = 0, in = 0
# time =                  165, out = 1, in = 0
# time =                  170, out = 1, in = 1
# time =                  175, out = 0, in = 1
# time =                  180, out = 0, in = 0
# time =                  190, out = 0, in = 1
# time =                  200, out = 0, in = 1
# time =                  210, out = 0, in = 0
# time =                  220, out = 0, in = 1
# time =                  230, out = 0, in = 0
# time =                  235, out = 1, in = 0
# time =                  240, out = 1, in = 0
# time =                  245, out = 0, in = 0
# time =                  250, out = 0, in = 0
# time =                  260, out = 0, in = 1
# time =                  270, out = 0, in = 0
# time =                  280, out = 0, in = 1
# time =                  290, out = 0, in = 1
# time =                  300, out = 0, in = 1
# time =                  310, out = 0, in = 1
# time =                  320, out = 0, in = 0
# time =                  330, out = 0, in = 0
# time =                  340, out = 0, in = 0
# time =                  350, out = 0, in = 0
# time =                  360, out = 0, in = 1
# time =                  370, out = 0, in = 0
# time =                  380, out = 0, in = 1
# time =                  390, out = 0, in = 1
# time =                  400, out = 0, in = 1
# time =                  410, out = 0, in = 1
# time =                  420, out = 0, in = 1
# time =                  430, out = 0, in = 0
# time =                  440, out = 0, in = 0
# time =                  450, out = 0, in = 1
# time =                  460, out = 0, in = 1
# time =                  470, out = 0, in = 1
# time =                  480, out = 0, in = 0
# time =                  490, out = 0, in = 0
# time =                  500, out = 0, in = 0
# Compile of pattern_detector.sv was successful.
vsim work.top
# End time: 10:13:26 on Nov 07,2024, Elapsed time: 0:02:26
# Errors: 0, Warnings: 2
# vsim work.top 
# Start time: 10:13:26 on Nov 07,2024
# ** Note: (vsim-3813) Design is being optimized due to module recompilation...
# Loading sv_std.std
# Loading work.top(fast)
run -all
# time =                   10, out = 0, in = 0
# time =                   20, out = 0, in = 1
# time =                   30, out = 0, in = 1
# time =                   40, out = 0, in = 1
# time =                   50, out = 0, in = 1
# time =                   60, out = 0, in = 1
# time =                   70, out = 0, in = 1
# time =                   80, out = 0, in = 0
# time =                   90, out = 0, in = 1
# time =                  100, out = 0, in = 1
# time =                  110, out = 0, in = 0
# time =                  120, out = 0, in = 1
# time =                  130, out = 0, in = 1
# time =                  140, out = 0, in = 0
# time =                  150, out = 0, in = 1
# time =                  160, out = 0, in = 0
# time =                  170, out = 0, in = 1
# time =                  180, out = 0, in = 0
# time =                  190, out = 0, in = 1
# time =                  200, out = 0, in = 1
# time =                  210, out = 0, in = 0
# time =                  220, out = 0, in = 1
# time =                  230, out = 0, in = 0
# time =                  240, out = 0, in = 0
# time =                  250, out = 0, in = 0
# time =                  260, out = 0, in = 1
# time =                  270, out = 0, in = 0
# time =                  280, out = 0, in = 1
# time =                  290, out = 0, in = 1
# time =                  300, out = 0, in = 1
# time =                  310, out = 0, in = 1
# time =                  320, out = 0, in = 0
# time =                  330, out = 0, in = 0
# time =                  340, out = 0, in = 0
# time =                  350, out = 0, in = 0
# time =                  360, out = 0, in = 1
# time =                  370, out = 0, in = 0
# time =                  380, out = 0, in = 1
# time =                  390, out = 0, in = 1
# time =                  400, out = 0, in = 1
# time =                  410, out = 0, in = 1
# time =                  420, out = 0, in = 1
# time =                  430, out = 0, in = 0
# time =                  440, out = 0, in = 0
# time =                  450, out = 0, in = 1
# time =                  460, out = 0, in = 1
# time =                  470, out = 0, in = 1
# time =                  480, out = 0, in = 0
# time =                  490, out = 0, in = 0
# time =                  500, out = 0, in = 0
# Compile of pattern_detector.sv was successful.
vsim work.top
# End time: 10:14:06 on Nov 07,2024, Elapsed time: 0:00:40
# Errors: 0, Warnings: 2
# vsim work.top 
# Start time: 10:14:06 on Nov 07,2024
# ** Note: (vsim-3813) Design is being optimized due to module recompilation...
# Loading sv_std.std
# Loading work.top(fast)
run -all
# time =                   10, out = 0, in = 0
# time =                   20, out = 0, in = 1
# time =                   30, out = 0, in = 1
# time =                   40, out = 0, in = 1
# time =                   50, out = 0, in = 1
# time =                   60, out = 0, in = 1
# time =                   70, out = 0, in = 1
# time =                   80, out = 0, in = 0
# time =                   90, out = 0, in = 1
# time =                  100, out = 0, in = 1
# time =                  110, out = 0, in = 0
# time =                  120, out = 0, in = 1
# time =                  130, out = 0, in = 1
# time =                  140, out = 0, in = 0
# time =                  150, out = 0, in = 1
# time =                  160, out = 0, in = 0
# time =                  165, out = 1, in = 0
# time =                  170, out = 1, in = 1
# time =                  175, out = 0, in = 1
# time =                  180, out = 0, in = 0
# time =                  190, out = 0, in = 1
# time =                  200, out = 0, in = 1
# time =                  210, out = 0, in = 0
# time =                  220, out = 0, in = 1
# time =                  230, out = 0, in = 0
# time =                  235, out = 1, in = 0
# time =                  240, out = 1, in = 0
# time =                  245, out = 0, in = 0
# time =                  250, out = 0, in = 0
# time =                  260, out = 0, in = 1
# time =                  270, out = 0, in = 0
# time =                  280, out = 0, in = 1
# time =                  290, out = 0, in = 1
# time =                  300, out = 0, in = 1
# time =                  310, out = 0, in = 1
# time =                  320, out = 0, in = 0
# time =                  330, out = 0, in = 0
# time =                  340, out = 0, in = 0
# time =                  350, out = 0, in = 0
# time =                  360, out = 0, in = 1
# time =                  370, out = 0, in = 0
# time =                  380, out = 0, in = 1
# time =                  390, out = 0, in = 1
# time =                  400, out = 0, in = 1
# time =                  410, out = 0, in = 1
# time =                  420, out = 0, in = 1
# time =                  430, out = 0, in = 0
# time =                  440, out = 0, in = 0
# time =                  450, out = 0, in = 1
# time =                  460, out = 0, in = 1
# time =                  470, out = 0, in = 1
# time =                  480, out = 0, in = 0
# time =                  490, out = 0, in = 0
# time =                  500, out = 0, in = 0
# Compile of pattern_detector.sv was successful.
vsim work.top
# End time: 10:15:28 on Nov 07,2024, Elapsed time: 0:01:22
# Errors: 0, Warnings: 2
# vsim work.top 
# Start time: 10:15:29 on Nov 07,2024
# ** Note: (vsim-3813) Design is being optimized due to module recompilation...
# Loading sv_std.std
# Loading work.top(fast)
run -all
# time =                    0, out = x, in = x
# time =                    5, out = 0, in = x
# time =                   10, out = 0, in = 0
# time =                   20, out = 0, in = 1
# time =                   80, out = 0, in = 0
# time =                   90, out = 0, in = 1
# time =                  110, out = 0, in = 0
# time =                  120, out = 0, in = 1
# time =                  140, out = 0, in = 0
# time =                  150, out = 0, in = 1
# time =                  160, out = 0, in = 0
# time =                  165, out = 1, in = 0
# time =                  170, out = 1, in = 1
# time =                  175, out = 0, in = 1
# time =                  180, out = 0, in = 0
# time =                  190, out = 0, in = 1
# time =                  210, out = 0, in = 0
# time =                  220, out = 0, in = 1
# time =                  230, out = 0, in = 0
# time =                  235, out = 1, in = 0
# time =                  245, out = 0, in = 0
# time =                  260, out = 0, in = 1
# time =                  270, out = 0, in = 0
# time =                  280, out = 0, in = 1
# time =                  320, out = 0, in = 0
# time =                  360, out = 0, in = 1
# time =                  370, out = 0, in = 0
# time =                  380, out = 0, in = 1
# time =                  430, out = 0, in = 0
# time =                  450, out = 0, in = 1
# time =                  480, out = 0, in = 0
# Compile of pattern_detector.sv was successful.
vsim work.top
# End time: 10:17:30 on Nov 07,2024, Elapsed time: 0:02:01
# Errors: 0, Warnings: 2
# vsim work.top 
# Start time: 10:17:30 on Nov 07,2024
# ** Note: (vsim-3813) Design is being optimized due to module recompilation...
# Loading sv_std.std
# Loading work.top(fast)
run -all
# time =                    0, out = x, in = x
# time =                    5, out = 0, in = x
# time =                   10, out = 0, in = 0
# time =                   20, out = 0, in = 1
# time =                   30, out = 0, in = 1
# time =                   40, out = 0, in = 1
# time =                   50, out = 0, in = 1
# time =                   60, out = 0, in = 1
# time =                   70, out = 0, in = 1
# time =                   80, out = 0, in = 0
# time =                   90, out = 0, in = 1
# time =                  100, out = 0, in = 1
# time =                  110, out = 0, in = 0
# time =                  120, out = 0, in = 1
# time =                  130, out = 0, in = 1
# time =                  140, out = 0, in = 0
# time =                  150, out = 0, in = 1
# time =                  160, out = 0, in = 0
# time =                  165, out = 1, in = 0
# time =                  170, out = 1, in = 1
# time =                  175, out = 0, in = 1
# time =                  180, out = 0, in = 0
# time =                  190, out = 0, in = 1
# time =                  200, out = 0, in = 1
# time =                  210, out = 0, in = 0
# time =                  220, out = 0, in = 1
# time =                  230, out = 0, in = 0
# time =                  235, out = 1, in = 0
# time =                  240, out = 1, in = 0
# time =                  245, out = 0, in = 0
# time =                  250, out = 0, in = 0
# time =                  260, out = 0, in = 1
# time =                  270, out = 0, in = 0
# time =                  280, out = 0, in = 1
# time =                  290, out = 0, in = 1
# time =                  300, out = 0, in = 1
# time =                  310, out = 0, in = 1
# time =                  320, out = 0, in = 0
# time =                  330, out = 0, in = 0
# time =                  340, out = 0, in = 0
# time =                  350, out = 0, in = 0
# time =                  360, out = 0, in = 1
# time =                  370, out = 0, in = 0
# time =                  380, out = 0, in = 1
# time =                  390, out = 0, in = 1
# time =                  400, out = 0, in = 1
# time =                  410, out = 0, in = 1
# time =                  420, out = 0, in = 1
# time =                  430, out = 0, in = 0
# time =                  440, out = 0, in = 0
# time =                  450, out = 0, in = 1
# time =                  460, out = 0, in = 1
# time =                  470, out = 0, in = 1
# time =                  480, out = 0, in = 0
# time =                  490, out = 0, in = 0
quit -sim
# End time: 10:27:04 on Nov 07,2024, Elapsed time: 0:09:34
# Errors: 0, Warnings: 1
vsim work.top
# vsim work.top 
# Start time: 10:27:27 on Nov 07,2024
# ** Note: (vsim-8009) Loading existing optimized design _opt1
# Loading sv_std.std
# Loading work.top(fast)
add wave -r /*
# ** UI-Msg (Warning): (vish-4014) No objects found matching '/*'.
run -all
# time =                    0, out = x, in = x
# time =                    5, out = 0, in = x
# time =                   10, out = 0, in = 0
# time =                   20, out = 0, in = 1
# time =                   30, out = 0, in = 1
# time =                   40, out = 0, in = 1
# time =                   50, out = 0, in = 1
# time =                   60, out = 0, in = 1
# time =                   70, out = 0, in = 1
# time =                   80, out = 0, in = 0
# time =                   90, out = 0, in = 1
# time =                  100, out = 0, in = 1
# time =                  110, out = 0, in = 0
# time =                  120, out = 0, in = 1
# time =                  130, out = 0, in = 1
# time =                  140, out = 0, in = 0
# time =                  150, out = 0, in = 1
# time =                  160, out = 0, in = 0
# time =                  165, out = 1, in = 0
# time =                  170, out = 1, in = 1
# time =                  175, out = 0, in = 1
# time =                  180, out = 0, in = 0
# time =                  190, out = 0, in = 1
# time =                  200, out = 0, in = 1
# time =                  210, out = 0, in = 0
# time =                  220, out = 0, in = 1
# time =                  230, out = 0, in = 0
# time =                  235, out = 1, in = 0
# time =                  240, out = 1, in = 0
# time =                  245, out = 0, in = 0
# time =                  250, out = 0, in = 0
# time =                  260, out = 0, in = 1
# time =                  270, out = 0, in = 0
# time =                  280, out = 0, in = 1
# time =                  290, out = 0, in = 1
# time =                  300, out = 0, in = 1
# time =                  310, out = 0, in = 1
# time =                  320, out = 0, in = 0
# time =                  330, out = 0, in = 0
# time =                  340, out = 0, in = 0
# time =                  350, out = 0, in = 0
# time =                  360, out = 0, in = 1
# time =                  370, out = 0, in = 0
# time =                  380, out = 0, in = 1
# time =                  390, out = 0, in = 1
# time =                  400, out = 0, in = 1
# time =                  410, out = 0, in = 1
# time =                  420, out = 0, in = 1
# time =                  430, out = 0, in = 0
# time =                  440, out = 0, in = 0
# time =                  450, out = 0, in = 1
# time =                  460, out = 0, in = 1
# time =                  470, out = 0, in = 1
# time =                  480, out = 0, in = 0
# time =                  490, out = 0, in = 0
quit -sim
# End time: 10:28:46 on Nov 07,2024, Elapsed time: 0:01:19
# Errors: 0, Warnings: 1
vsim work.top -voptargs=+acc
# vsim work.top -voptargs="+acc" 
# Start time: 10:29:04 on Nov 07,2024
# ** Note: (vsim-3813) Design is being optimized due to module recompilation...
# ** Warning: (vopt-10587) Some optimizations are turned off because the +acc switch is in effect. This will cause your simulation to run slowly. Please use -access/-debug to maintain needed visibility. The +acc switch would be deprecated in a future release.
# ** Note: (vopt-143) Recognized 1 FSM in module "pattern_detector_1010(fast)".
# ** Note: (vsim-12126) Error and warning message counts have been restored: Errors=0, Warnings=1.
# Loading sv_std.std
# Loading work.top(fast)
# Loading work.pattern_detector_1010(fast)
add wave -r /*
run -all
# time =                    0, out = x, in = x
# time =                    5, out = 0, in = x
# time =                   10, out = 0, in = 0
# time =                   20, out = 0, in = 1
# time =                   30, out = 0, in = 1
# time =                   40, out = 0, in = 1
# time =                   50, out = 0, in = 1
# time =                   60, out = 0, in = 1
# time =                   70, out = 0, in = 1
# time =                   80, out = 0, in = 0
# time =                   90, out = 0, in = 1
# time =                  100, out = 0, in = 1
# time =                  110, out = 0, in = 0
# time =                  120, out = 0, in = 1
# time =                  130, out = 0, in = 1
# time =                  140, out = 0, in = 0
# time =                  150, out = 0, in = 1
# time =                  160, out = 0, in = 0
# time =                  165, out = 1, in = 0
# time =                  170, out = 1, in = 1
# time =                  175, out = 0, in = 1
# time =                  180, out = 0, in = 0
# time =                  190, out = 0, in = 1
# time =                  200, out = 0, in = 1
# time =                  210, out = 0, in = 0
# time =                  220, out = 0, in = 1
# time =                  230, out = 0, in = 0
# time =                  235, out = 1, in = 0
# time =                  240, out = 1, in = 0
# time =                  245, out = 0, in = 0
# time =                  250, out = 0, in = 0
# time =                  260, out = 0, in = 1
# time =                  270, out = 0, in = 0
# time =                  280, out = 0, in = 1
# time =                  290, out = 0, in = 1
# time =                  300, out = 0, in = 1
# time =                  310, out = 0, in = 1
# time =                  320, out = 0, in = 0
# time =                  330, out = 0, in = 0
# time =                  340, out = 0, in = 0
# time =                  350, out = 0, in = 0
# time =                  360, out = 0, in = 1
# time =                  370, out = 0, in = 0
# time =                  380, out = 0, in = 1
# time =                  390, out = 0, in = 1
# time =                  400, out = 0, in = 1
# time =                  410, out = 0, in = 1
# time =                  420, out = 0, in = 1
# time =                  430, out = 0, in = 0
# time =                  440, out = 0, in = 0
# time =                  450, out = 0, in = 1
# time =                  460, out = 0, in = 1
# time =                  470, out = 0, in = 1
# time =                  480, out = 0, in = 0
# time =                  490, out = 0, in = 0
# Compile of pattern_detector.sv was successful.
vsim -voptargs=+acc work.top
# End time: 10:35:17 on Nov 07,2024, Elapsed time: 0:06:13
# Errors: 0, Warnings: 3
# vsim -voptargs="+acc" work.top 
# Start time: 10:35:17 on Nov 07,2024
# ** Note: (vsim-3813) Design is being optimized due to module recompilation...
# ** Warning: (vopt-10587) Some optimizations are turned off because the +acc switch is in effect. This will cause your simulation to run slowly. Please use -access/-debug to maintain needed visibility. The +acc switch would be deprecated in a future release.
# ** Note: (vopt-143) Recognized 1 FSM in module "pattern_detector_1010(fast)".
# ** Note: (vsim-12126) Error and warning message counts have been restored: Errors=0, Warnings=1.
# Loading sv_std.std
# Loading work.top(fast)
# Loading work.pattern_detector_1010(fast)
add wave -r /*
run
# time =                    0, out = x, in = 0
# time =                    5, out = 0, in = 0
# time =                   10, out = 0, in = 1
# time =                   20, out = 0, in = 1
# time =                   30, out = 0, in = 1
# time =                   40, out = 0, in = 1
# time =                   50, out = 0, in = 1
# time =                   60, out = 0, in = 1
# time =                   70, out = 0, in = 0
# time =                   80, out = 0, in = 1
# time =                   90, out = 0, in = 1
# time =                  100, out = 0, in = 0
# time =                  110, out = 0, in = 1
# time =                  120, out = 0, in = 1
# time =                  130, out = 0, in = 0
# time =                  140, out = 0, in = 1
# time =                  150, out = 0, in = 0
# time =                  155, out = 1, in = 0
# time =                  160, out = 1, in = 1
# time =                  165, out = 0, in = 1
# time =                  170, out = 0, in = 0
# time =                  180, out = 0, in = 1
# time =                  190, out = 0, in = 1
# time =                  200, out = 0, in = 0
# time =                  210, out = 0, in = 1
# time =                  220, out = 0, in = 0
# time =                  225, out = 1, in = 0
# time =                  230, out = 1, in = 0
# time =                  235, out = 0, in = 0
# time =                  240, out = 0, in = 0
# time =                  250, out = 0, in = 1
# time =                  260, out = 0, in = 0
# time =                  270, out = 0, in = 1
# time =                  280, out = 0, in = 1
# time =                  290, out = 0, in = 1
# time =                  300, out = 0, in = 1
# time =                  310, out = 0, in = 0
# time =                  320, out = 0, in = 0
# time =                  330, out = 0, in = 0
# time =                  340, out = 0, in = 0
# time =                  350, out = 0, in = 1
# time =                  360, out = 0, in = 0
# time =                  370, out = 0, in = 1
# time =                  380, out = 0, in = 1
# time =                  390, out = 0, in = 1
# time =                  400, out = 0, in = 1
# time =                  410, out = 0, in = 1
# time =                  420, out = 0, in = 0
