8x1mux/transcript
# //  Questa Sim-64
# //  Version 2024.2 linux_x86_64 May 20 2024
# //
# // Unpublished work. Copyright 2024 Siemens
# //
# // This material contains trade secrets or otherwise confidential information
# // owned by Siemens Industry Software Inc. or its affiliates (collectively,
# // "SISW"), or its licensors. Access to and use of this information is strictly
# // limited as set forth in the Customer's applicable agreements with SISW.
# //
# // This material may not be copied, distributed, or otherwise disclosed outside
# // of the Customer's facilities without the express written permission of SISW,
# // and may not be used in any way not expressly authorized by SISW.
# //
project open /u/koushik/system_verilog/System-verilog/8x1mux/8x1_mux.mpf
# Loading project 8x1_mux
# Compile of 8x1mux.sv failed with 2 errors.
# Compile of 8x1mux.sv failed with 1 errors.
# Compile of 8x1mux.sv failed with 2 errors.
# Compile of 8x1mux.sv failed with 1 errors.
# Compile of 8x1mux.sv failed with 1 errors.
# Compile of 8x1mux.sv failed with 3 errors.
# Compile of 8x1mux.sv failed with 3 errors.
# Compile of 8x1mux.sv was successful.
vsim work.top
# vsim work.top 
# Start time: 01:07:06 on Nov 11,2024
# ** Note: (vsim-3812) Design is being optimized...
# Loading sv_std.std
# Loading work.top(fast)
run -all
# MISMATCH: time=                    0, s=1, e=00100100, y=0, y_exp=0
# time=                    5, s=3, e=00001001, y=1
# time=                   10, s=5, e=00001101, y=0
# time=                   15, s=2, e=01100101, y=1
# time=                   20, s=5, e=00000001, y=0
# time=                   25, s=5, e=01110110, y=1
# time=                   30, s=4, e=11101101, y=0
# time=                   35, s=6, e=11111001, y=1
# time=                   40, s=2, e=11000101, y=1
# time=                   45, s=7, e=11100101, y=1
# time=                   50, s=7, e=00010010, y=0
# time=                   55, s=6, e=11110010, y=1
# time=                   60, s=5, e=11101000, y=1
# time=                   65, s=5, e=01011100, y=0
# time=                   70, s=5, e=00101101, y=1
# time=                   75, s=2, e=01100011, y=0
# time=                   80, s=0, e=10000000, y=0
# time=                   85, s=5, e=10101010, y=1
# time=                   90, s=3, e=10010110, y=0
# time=                   95, s=3, e=00001101, y=1
# time=                  100, s=5, e=01101011, y=1
# time=                  105, s=6, e=00000010, y=0
# time=                  110, s=7, e=00011101, y=0
# time=                  115, s=2, e=00100011, y=0
# time=                  120, s=4, e=11001010, y=0
# time=                  125, s=2, e=11110010, y=0
# time=                  130, s=0, e=01000001, y=1
# time=                  135, s=1, e=01111000, y=0
# time=                  140, s=6, e=11101011, y=1
# time=                  145, s=6, e=11000110, y=1
# time=                  150, s=2, e=10111100, y=1
# time=                  155, s=1, e=00001011, y=1
# time=                  160, s=7, e=10000101, y=1
# time=                  165, s=2, e=00111011, y=0
# time=                  170, s=5, e=01111110, y=1
# time=                  175, s=1, e=11110001, y=0
# time=                  180, s=4, e=01100010, y=0
# time=                  185, s=7, e=10011111, y=1
# time=                  190, s=7, e=11111000, y=1
# time=                  195, s=4, e=10011111, y=1
# time=                  200, s=1, e=01011011, y=1
# time=                  205, s=0, e=01001001, y=1
# time=                  210, s=1, e=11010111, y=1
# time=                  215, s=4, e=10010110, y=1
# time=                  220, s=0, e=11000010, y=0
# time=                  225, s=5, e=01110111, y=1
# time=                  230, s=6, e=00010010, y=0
# time=                  235, s=1, e=01101101, y=0
# time=                  240, s=3, e=00011111, y=1
# time=                  245, s=0, e=10000101, y=1
# time=                  250, s=1, e=01011011, y=1
# time=                  255, s=2, e=00111111, y=1
# time=                  260, s=6, e=01011000, y=1
# time=                  265, s=4, e=10001110, y=0
# time=                  270, s=6, e=11111010, y=1
# time=                  275, s=3, e=01110011, y=0
# time=                  280, s=3, e=00101111, y=1
# time=                  285, s=4, e=01011111, y=1
# time=                  290, s=3, e=11110111, y=0
# time=                  295, s=2, e=11100110, y=1
# time=                  300, s=5, e=00101001, y=1
# time=                  305, s=5, e=11011010, y=0
# time=                  310, s=7, e=10110101, y=1
# time=                  315, s=4, e=01111001, y=1
# time=                  320, s=2, e=11010000, y=0
# time=                  325, s=6, e=10101011, y=0
# time=                  330, s=2, e=11011100, y=1
# time=                  335, s=3, e=11111101, y=1
# time=                  340, s=6, e=01010110, y=1
# time=                  345, s=2, e=01100111, y=1
# time=                  350, s=0, e=10110110, y=0
# time=                  355, s=0, e=01111001, y=1
# time=                  360, s=3, e=10010100, y=0
# time=                  365, s=1, e=00000100, y=0
# time=                  370, s=5, e=11011011, y=0
# time=                  375, s=5, e=11011001, y=0
# time=                  380, s=2, e=01110110, y=1
# time=                  385, s=5, e=10110110, y=1
# time=                  390, s=4, e=01000110, y=0
# time=                  395, s=1, e=11110111, y=1
# time=                  400, s=0, e=10110100, y=0
# time=                  405, s=5, e=00101000, y=1
# time=                  410, s=6, e=11000111, y=1
# time=                  415, s=4, e=00001000, y=0
# time=                  420, s=1, e=11111101, y=0
# time=                  425, s=6, e=00011100, y=0
# time=                  430, s=5, e=11011010, y=0
# time=                  435, s=0, e=01100110, y=0
# time=                  440, s=2, e=01110011, y=0
# time=                  445, s=2, e=01011110, y=1
# time=                  450, s=2, e=11010101, y=1
# time=                  455, s=7, e=10111001, y=1
# time=                  460, s=0, e=10010110, y=0
# time=                  465, s=6, e=00100110, y=0
# time=                  470, s=4, e=01111101, y=1
# time=                  475, s=0, e=10000110, y=0
# time=                  480, s=3, e=01111110, y=1
# time=                  485, s=1, e=11001111, y=1
# time=                  490, s=1, e=11111010, y=1
# time=                  495, s=1, e=00010111, y=1
# time=                  500, s=0, e=10000110, y=0
# time=                  505, s=5, e=11110101, y=1
# time=                  510, s=1, e=00101001, y=0
# time=                  515, s=0, e=11000101, y=1
# time=                  520, s=3, e=01001011, y=1
# time=                  525, s=2, e=11101100, y=1
# time=                  530, s=0, e=01001110, y=0
# time=                  535, s=1, e=10101001, y=0
# time=                  540, s=6, e=00001110, y=0
# time=                  545, s=2, e=10011111, y=1
# time=                  550, s=5, e=00101010, y=1
# time=                  555, s=0, e=10011110, y=0
# time=                  560, s=0, e=01111001, y=1
# time=                  565, s=3, e=11001010, y=1
# time=                  570, s=7, e=01101011, y=0
# time=                  575, s=2, e=10110110, y=1
# time=                  580, s=1, e=11000100, y=0
# time=                  585, s=4, e=10010010, y=1
# time=                  590, s=6, e=01111111, y=1
# time=                  595, s=2, e=11111010, y=0
# time=                  600, s=5, e=00110010, y=1
# time=                  605, s=4, e=10000100, y=0
# time=                  610, s=1, e=11001010, y=1
# time=                  615, s=6, e=10100001, y=0
# time=                  620, s=3, e=11111011, y=1
# time=                  625, s=1, e=11101111, y=1
# time=                  630, s=5, e=00110110, y=1
# time=                  635, s=3, e=10001111, y=1
# time=                  640, s=6, e=10001000, y=0
# time=                  645, s=2, e=10011011, y=0
# time=                  650, s=5, e=00101000, y=1
# time=                  655, s=2, e=01001011, y=0
# time=                  660, s=5, e=00011110, y=0
# time=                  665, s=0, e=11101100, y=0
# time=                  670, s=6, e=11010001, y=1
# time=                  675, s=3, e=01000001, y=0
# time=                  680, s=3, e=11011000, y=1
# time=                  685, s=3, e=01010110, y=0
# time=                  690, s=4, e=11100010, y=0
# time=                  695, s=0, e=01110011, y=1
# time=                  700, s=0, e=00010010, y=0
# time=                  705, s=5, e=00111001, y=1
# time=                  710, s=3, e=10100001, y=0
# time=                  715, s=0, e=10000001, y=1
# time=                  720, s=1, e=00100111, y=1
# time=                  725, s=4, e=00011111, y=1
# time=                  730, s=6, e=01011000, y=1
# time=                  735, s=2, e=00010100, y=1
# time=                  740, s=1, e=10010110, y=1
# time=                  745, s=5, e=01010101, y=0
# time=                  750, s=5, e=00101011, y=1
# time=                  755, s=7, e=10101101, y=1
# time=                  760, s=7, e=10000100, y=1
# time=                  765, s=1, e=11100111, y=1
# time=                  770, s=3, e=01001001, y=1
# time=                  775, s=1, e=11001001, y=0
# time=                  780, s=2, e=10100001, y=0
# time=                  785, s=5, e=11111010, y=1
# time=                  790, s=4, e=10000011, y=0
# time=                  795, s=6, e=01110010, y=1
# time=                  800, s=7, e=01101000, y=0
# time=                  805, s=0, e=10000110, y=0
# time=                  810, s=0, e=00111000, y=0
# time=                  815, s=6, e=00101000, y=0
# time=                  820, s=0, e=11000101, y=1
# time=                  825, s=1, e=01110100, y=0
# time=                  830, s=4, e=10110000, y=1
# time=                  835, s=2, e=00101010, y=0
# time=                  840, s=1, e=00010101, y=0
# time=                  845, s=3, e=00010111, y=0
# time=                  850, s=6, e=11001001, y=1
# time=                  855, s=1, e=00100101, y=0
# time=                  860, s=2, e=10001101, y=1
# time=                  865, s=4, e=00000111, y=0
# time=                  870, s=1, e=00001100, y=0
# time=                  875, s=6, e=00111011, y=0
# time=                  880, s=6, e=11110111, y=1
# time=                  885, s=5, e=01011100, y=0
# time=                  890, s=0, e=00100000, y=0
# time=                  895, s=4, e=01110010, y=1
# time=                  900, s=5, e=11011101, y=0
# time=                  905, s=1, e=01001011, y=1
# time=                  910, s=5, e=10011110, y=0
# time=                  915, s=7, e=01111011, y=0
# time=                  920, s=3, e=00000011, y=0
# time=                  925, s=1, e=00011101, y=0
# time=                  930, s=5, e=01000100, y=0
# time=                  935, s=5, e=11100000, y=1
# time=                  940, s=0, e=01010010, y=0
# time=                  945, s=2, e=10001101, y=1
# time=                  950, s=6, e=10000100, y=0
# time=                  955, s=0, e=10001100, y=0
# time=                  960, s=2, e=00010111, y=1
# time=                  965, s=2, e=10000100, y=1
# time=                  970, s=0, e=01111100, y=0
# time=                  975, s=3, e=10111010, y=1
# time=                  980, s=5, e=10100110, y=1
# time=                  985, s=2, e=00110010, y=0
# time=                  990, s=4, e=01001001, y=0
# time=                  995, s=3, e=00111101, y=1
# time=                 1000, s=7, e=01011100, y=0
# time=                 1005, s=1, e=10000110, y=1
# time=                 1010, s=0, e=10110100, y=0
# time=                 1015, s=4, e=00101100, y=0
# time=                 1020, s=2, e=00000111, y=1
# time=                 1025, s=0, e=00010001, y=1
# time=                 1030, s=3, e=01001011, y=1
# time=                 1035, s=3, e=11101100, y=1
# time=                 1040, s=1, e=10100100, y=0
# time=                 1045, s=7, e=00111001, y=0
# time=                 1050, s=7, e=11010100, y=1
# time=                 1055, s=0, e=10011101, y=1
# time=                 1060, s=1, e=10000010, y=1
# time=                 1065, s=0, e=11011001, y=1
# time=                 1070, s=3, e=00011100, y=1
# time=                 1075, s=2, e=11100011, y=0
# time=                 1080, s=5, e=11001000, y=0
# time=                 1085, s=4, e=00111010, y=1
# time=                 1090, s=1, e=00101011, y=1
# time=                 1095, s=2, e=00010010, y=0
# time=                 1100, s=0, e=01011001, y=1
# time=                 1105, s=7, e=01101110, y=0
# time=                 1110, s=6, e=11011011, y=1
# time=                 1115, s=0, e=10111011, y=1
# time=                 1120, s=1, e=00001111, y=1
# time=                 1125, s=1, e=00001100, y=0
# time=                 1130, s=7, e=11000101, y=1
# time=                 1135, s=1, e=10010000, y=0
# time=                 1140, s=7, e=01101001, y=0
# time=                 1145, s=0, e=01001010, y=0
# time=                 1150, s=4, e=10011011, y=1
# time=                 1155, s=7, e=10111000, y=1
# time=                 1160, s=0, e=10000110, y=0
# time=                 1165, s=5, e=01110111, y=1
# time=                 1170, s=7, e=11010100, y=1
# time=                 1175, s=1, e=01110110, y=1
# time=                 1180, s=1, e=10001011, y=1
# time=                 1185, s=0, e=11011011, y=1
# time=                 1190, s=5, e=11000010, y=0
# time=                 1195, s=7, e=00110000, y=0
# time=                 1200, s=7, e=01100110, y=0
# time=                 1205, s=0, e=11101001, y=1
# time=                 1210, s=7, e=00000110, y=0
# time=                 1215, s=5, e=11100001, y=1
# time=                 1220, s=0, e=11101110, y=0
# time=                 1225, s=0, e=11100101, y=1
# time=                 1230, s=1, e=01100100, y=0
# time=                 1235, s=7, e=11100001, y=1
# time=                 1240, s=1, e=01101110, y=1
# time=                 1245, s=0, e=11010101, y=1
# time=                 1250, s=2, e=11110000, y=0
# time=                 1255, s=1, e=00001111, y=1
# time=                 1260, s=6, e=01111101, y=1
# time=                 1265, s=4, e=11100010, y=0
# time=                 1270, s=7, e=10101001, y=1
# time=                 1275, s=7, e=01011011, y=0
# time=                 1280, s=1, e=01001010, y=1
# time=                 1285, s=3, e=00010011, y=0
# time=                 1290, s=1, e=01100101, y=0
# time=                 1295, s=1, e=10110111, y=1
# time=                 1300, s=1, e=00111010, y=1
# time=                 1305, s=4, e=01100010, y=0
# time=                 1310, s=5, e=00101010, y=1
# time=                 1315, s=5, e=01011001, y=0
# time=                 1320, s=1, e=11101101, y=0
# time=                 1325, s=7, e=01000001, y=0
# time=                 1330, s=5, e=11011011, y=0
# time=                 1335, s=6, e=01110000, y=1
# time=                 1340, s=5, e=10100010, y=1
# time=                 1345, s=4, e=01101010, y=0
# time=                 1350, s=3, e=01010000, y=0
# time=                 1355, s=0, e=00100101, y=1
# time=                 1360, s=4, e=11110110, y=1
# time=                 1365, s=1, e=00100011, y=1
# time=                 1370, s=3, e=11001000, y=1
# time=                 1375, s=3, e=00001110, y=1
# time=                 1380, s=6, e=00001100, y=0
# time=                 1385, s=1, e=11010100, y=0
# time=                 1390, s=3, e=10111001, y=1
# time=                 1395, s=5, e=11110100, y=1
# time=                 1400, s=1, e=00001100, y=0
# time=                 1405, s=5, e=00000010, y=0
# time=                 1410, s=6, e=00000101, y=0
# time=                 1415, s=0, e=00000010, y=0
# time=                 1420, s=5, e=00001000, y=0
# time=                 1425, s=0, e=10101111, y=1
# time=                 1430, s=5, e=10010000, y=0
# time=                 1435, s=3, e=01001100, y=1
# time=                 1440, s=5, e=01000000, y=0
# time=                 1445, s=0, e=00001101, y=1
# time=                 1450, s=1, e=00101101, y=0
# time=                 1455, s=0, e=10111100, y=0
# time=                 1460, s=0, e=11000000, y=0
# time=                 1465, s=5, e=10100001, y=1
# time=                 1470, s=5, e=11110101, y=1
# time=                 1475, s=4, e=01011101, y=1
# time=                 1480, s=4, e=01101010, y=0
# time=                 1485, s=6, e=10111000, y=0
# time=                 1490, s=6, e=11111010, y=1
# time=                 1495, s=3, e=00000111, y=0
# time=                 1500, s=7, e=01010101, y=0
# time=                 1505, s=3, e=01000101, y=0
# time=                 1510, s=6, e=01011001, y=1
# time=                 1515, s=6, e=01101000, y=1
# time=                 1520, s=2, e=10010000, y=0
# time=                 1525, s=1, e=00011100, y=0
# time=                 1530, s=0, e=10101011, y=1
# time=                 1535, s=0, e=01101111, y=1
# time=                 1540, s=5, e=01000101, y=0
# time=                 1545, s=4, e=10001011, y=0
# time=                 1550, s=4, e=11011100, y=1
# time=                 1555, s=5, e=00011001, y=0
# time=                 1560, s=3, e=00111110, y=1
# time=                 1565, s=4, e=01011000, y=1
# time=                 1570, s=6, e=01011100, y=1
# time=                 1575, s=0, e=10011010, y=0
# time=                 1580, s=2, e=11000101, y=1
# time=                 1585, s=3, e=00011010, y=1
# time=                 1590, s=4, e=10110010, y=1
# time=                 1595, s=3, e=11101001, y=1
# time=                 1600, s=0, e=11101011, y=1
# time=                 1605, s=1, e=11110010, y=1
# time=                 1610, s=3, e=01101111, y=1
# time=                 1615, s=0, e=10101101, y=1
# time=                 1620, s=7, e=00100101, y=0
# time=                 1625, s=3, e=10101011, y=1
# time=                 1630, s=5, e=10000000, y=0
# time=                 1635, s=4, e=10000010, y=0
# time=                 1640, s=6, e=01010111, y=1
# time=                 1645, s=1, e=00110010, y=1
# time=                 1650, s=6, e=11100100, y=1
# time=                 1655, s=0, e=10101010, y=0
# time=                 1660, s=4, e=00101110, y=0
# time=                 1665, s=3, e=01110001, y=0
# time=                 1670, s=4, e=10111100, y=1
# time=                 1675, s=1, e=00010111, y=1
# time=                 1680, s=5, e=11101011, y=1
# time=                 1685, s=7, e=10001001, y=1
# time=                 1690, s=0, e=10111111, y=1
# time=                 1695, s=6, e=11010011, y=1
# time=                 1700, s=2, e=10000010, y=0
# time=                 1705, s=7, e=01110001, y=0
# time=                 1710, s=1, e=00001110, y=1
# time=                 1715, s=5, e=11001101, y=0
# time=                 1720, s=0, e=00011100, y=0
# time=                 1725, s=2, e=11101100, y=1
# time=                 1730, s=7, e=01100101, y=0
# time=                 1735, s=6, e=00000011, y=0
# time=                 1740, s=6, e=11111101, y=1
# time=                 1745, s=4, e=11101000, y=0
# time=                 1750, s=6, e=10110000, y=0
# time=                 1755, s=0, e=00010010, y=0
# time=                 1760, s=6, e=11000101, y=1
# time=                 1765, s=3, e=00110110, y=0
# time=                 1770, s=3, e=11111011, y=1
# time=                 1775, s=7, e=00010111, y=0
# time=                 1780, s=2, e=00010100, y=1
# time=                 1785, s=4, e=10100110, y=0
# time=                 1790, s=3, e=11001011, y=1
# time=                 1795, s=4, e=00000100, y=0
# time=                 1800, s=1, e=10001101, y=0
# time=                 1805, s=1, e=10000101, y=0
# time=                 1810, s=0, e=11001001, y=1
# time=                 1815, s=4, e=01000110, y=0
# time=                 1820, s=0, e=00110111, y=1
# time=                 1825, s=6, e=01110011, y=1
# time=                 1830, s=0, e=11011100, y=0
# time=                 1835, s=0, e=11010000, y=0
# time=                 1840, s=0, e=01000011, y=1
# time=                 1845, s=3, e=10100001, y=0
# time=                 1850, s=7, e=10011000, y=1
# time=                 1855, s=2, e=10000111, y=1
# time=                 1860, s=0, e=00101101, y=1
# time=                 1865, s=1, e=01101011, y=1
# time=                 1870, s=4, e=00010010, y=1
# time=                 1875, s=5, e=00001101, y=0
# time=                 1880, s=4, e=01000000, y=0
# time=                 1885, s=0, e=01010100, y=0
# time=                 1890, s=3, e=00010011, y=0
# time=                 1895, s=4, e=11101101, y=0
# time=                 1900, s=7, e=01111000, y=0
# time=                 1905, s=3, e=01011111, y=1
# time=                 1910, s=0, e=10101011, y=1
# time=                 1915, s=1, e=00100010, y=1
# time=                 1920, s=2, e=11000111, y=1
# time=                 1925, s=7, e=11001110, y=1
# time=                 1930, s=3, e=00100100, y=0
# time=                 1935, s=5, e=00001000, y=0
# time=                 1940, s=2, e=10110101, y=1
# time=                 1945, s=2, e=00111000, y=0
# time=                 1950, s=0, e=01011000, y=0
# time=                 1955, s=4, e=10100011, y=0
# time=                 1960, s=2, e=01100101, y=1
# time=                 1965, s=4, e=00000110, y=0
# time=                 1970, s=0, e=01011011, y=1
# time=                 1975, s=7, e=01001000, y=0
# time=                 1980, s=5, e=11111000, y=1
# time=                 1985, s=3, e=01010001, y=0
# time=                 1990, s=5, e=10011011, y=0
# time=                 1995, s=3, e=10110000, y=0
# time=                 2000, s=0, e=01001111, y=1
# time=                 2005, s=5, e=00011000, y=0
# time=                 2010, s=1, e=01000110, y=1
# time=                 2015, s=5, e=01011001, y=0
# time=                 2020, s=3, e=00101111, y=1
# time=                 2025, s=3, e=11011110, y=1
# time=                 2030, s=1, e=00101000, y=0
# time=                 2035, s=5, e=01011000, y=0
# time=                 2040, s=4, e=11000011, y=0
# time=                 2045, s=6, e=10100100, y=0
# time=                 2050, s=7, e=11010110, y=1
# time=                 2055, s=0, e=10000011, y=1
# time=                 2060, s=7, e=10000010, y=1
# time=                 2065, s=7, e=01000101, y=0
# time=                 2070, s=5, e=01000101, y=0
# time=                 2075, s=6, e=11111000, y=1
# time=                 2080, s=0, e=01101100, y=0
# time=                 2085, s=4, e=00110001, y=1
# time=                 2090, s=7, e=10111100, y=1
# time=                 2095, s=1, e=00001110, y=1
# time=                 2100, s=6, e=10110010, y=0
# time=                 2105, s=2, e=10000101, y=1
# time=                 2110, s=2, e=00101000, y=0
# time=                 2115, s=3, e=10011010, y=1
# time=                 2120, s=3, e=10111010, y=1
# time=                 2125, s=2, e=10001011, y=0
# time=                 2130, s=1, e=11001100, y=0
# time=                 2135, s=1, e=10011110, y=1
# time=                 2140, s=7, e=01111011, y=0
# time=                 2145, s=0, e=10010001, y=1
# time=                 2150, s=6, e=01011001, y=1
# time=                 2155, s=1, e=01010100, y=0
# time=                 2160, s=7, e=01001001, y=0
# time=                 2165, s=3, e=00100100, y=0
# time=                 2170, s=1, e=01011011, y=1
# time=                 2175, s=7, e=10010101, y=1
# time=                 2180, s=6, e=11110001, y=1
# time=                 2185, s=4, e=10101111, y=0
# time=                 2190, s=4, e=00010010, y=1
# time=                 2195, s=4, e=10101011, y=0
# time=                 2200, s=2, e=00111111, y=1
# time=                 2205, s=2, e=01110011, y=0
# time=                 2210, s=6, e=10100000, y=0
# time=                 2215, s=3, e=01110100, y=0
# time=                 2220, s=2, e=11100010, y=0
# time=                 2225, s=0, e=11011111, y=1
# time=                 2230, s=0, e=10011111, y=1
# time=                 2235, s=5, e=11110010, y=1
# time=                 2240, s=4, e=10101011, y=0
# time=                 2245, s=1, e=01010100, y=0
# time=                 2250, s=4, e=00010011, y=1
# time=                 2255, s=3, e=00110101, y=0
# time=                 2260, s=7, e=00110101, y=0
# time=                 2265, s=5, e=00110100, y=1
# time=                 2270, s=2, e=10111100, y=1
# time=                 2275, s=1, e=10100111, y=1
# time=                 2280, s=1, e=11100100, y=0
# time=                 2285, s=2, e=01101001, y=0
# time=                 2290, s=7, e=11001101, y=1
# time=                 2295, s=0, e=10110101, y=1
# time=                 2300, s=2, e=01001011, y=0
# time=                 2305, s=6, e=00110111, y=0
# time=                 2310, s=0, e=11111000, y=0
# time=                 2315, s=2, e=11011010, y=0
# time=                 2320, s=2, e=11101100, y=1
# time=                 2325, s=6, e=01111010, y=1
# time=                 2330, s=3, e=11101001, y=1
# time=                 2335, s=6, e=00001011, y=0
# time=                 2340, s=4, e=01011110, y=1
# time=                 2345, s=3, e=01000101, y=0
# time=                 2350, s=7, e=00010010, y=0
# time=                 2355, s=1, e=10000011, y=1
# time=                 2360, s=2, e=11001110, y=1
# time=                 2365, s=5, e=11010101, y=0
# time=                 2370, s=4, e=11100100, y=0
# time=                 2375, s=2, e=11101100, y=1
# time=                 2380, s=4, e=11100011, y=0
# time=                 2385, s=5, e=11110011, y=1
# time=                 2390, s=5, e=01011100, y=0
# time=                 2395, s=7, e=11101100, y=1
# time=                 2400, s=0, e=11111111, y=1
# time=                 2405, s=7, e=10101011, y=1
# time=                 2410, s=3, e=11111011, y=1
# time=                 2415, s=3, e=00001100, y=1
# time=                 2420, s=1, e=11100110, y=1
# time=                 2425, s=2, e=01101010, y=0
# time=                 2430, s=6, e=00011000, y=0
# time=                 2435, s=6, e=00001001, y=0
# time=                 2440, s=6, e=10111101, y=0
# time=                 2445, s=5, e=01110110, y=1
# time=                 2450, s=5, e=10001111, y=0
# time=                 2455, s=4, e=01111011, y=1
# time=                 2460, s=1, e=01101111, y=1
# time=                 2465, s=4, e=11001001, y=0
# time=                 2470, s=5, e=11011010, y=0
# time=                 2475, s=5, e=11011111, y=0
# time=                 2480, s=3, e=01110000, y=0
# time=                 2485, s=4, e=01010001, y=1
# time=                 2490, s=1, e=10000000, y=0
# time=                 2495, s=2, e=00000110, y=1
# Compile of 8x1mux.sv was successful.
vsim work.top
# End time: 01:09:40 on Nov 11,2024, Elapsed time: 0:02:34
# Errors: 0, Warnings: 10
# vsim work.top 
# Start time: 01:09:40 on Nov 11,2024
# ** Note: (vsim-3813) Design is being optimized due to module recompilation...
# Loading sv_std.std
# Loading work.top(fast)
run -all
# MISMATCH: time=                    0, s=1, e=00100100, y=0, y_exp=0
# time=                    5, s=3, e=00001001, y=1
# time=                   10, s=5, e=00001101, y=0
# time=                   15, s=2, e=01100101, y=1
# time=                   20, s=5, e=00000001, y=0
# time=                   25, s=5, e=01110110, y=1
# time=                   30, s=4, e=11101101, y=0
# time=                   35, s=6, e=11111001, y=1
# time=                   40, s=2, e=11000101, y=1
# time=                   45, s=7, e=11100101, y=1
# time=                   50, s=7, e=00010010, y=0
# time=                   55, s=6, e=11110010, y=1
# time=                   60, s=5, e=11101000, y=1
# time=                   65, s=5, e=01011100, y=0
# time=                   70, s=5, e=00101101, y=1
# time=                   75, s=2, e=01100011, y=0
# time=                   80, s=0, e=10000000, y=0
# time=                   85, s=5, e=10101010, y=1
# time=                   90, s=3, e=10010110, y=0
# time=                   95, s=3, e=00001101, y=1
# time=                  100, s=5, e=01101011, y=1
# time=                  105, s=6, e=00000010, y=0
# time=                  110, s=7, e=00011101, y=0
# time=                  115, s=2, e=00100011, y=0
# time=                  120, s=4, e=11001010, y=0
# time=                  125, s=2, e=11110010, y=0
# time=                  130, s=0, e=01000001, y=1
# time=                  135, s=1, e=01111000, y=0
# time=                  140, s=6, e=11101011, y=1
# time=                  145, s=6, e=11000110, y=1
# time=                  150, s=2, e=10111100, y=1
# time=                  155, s=1, e=00001011, y=1
# time=                  160, s=7, e=10000101, y=1
# time=                  165, s=2, e=00111011, y=0
# time=                  170, s=5, e=01111110, y=1
# time=                  175, s=1, e=11110001, y=0
# time=                  180, s=4, e=01100010, y=0
# time=                  185, s=7, e=10011111, y=1
# time=                  190, s=7, e=11111000, y=1
# time=                  195, s=4, e=10011111, y=1
# time=                  200, s=1, e=01011011, y=1
# time=                  205, s=0, e=01001001, y=1
# time=                  210, s=1, e=11010111, y=1
# time=                  215, s=4, e=10010110, y=1
# time=                  220, s=0, e=11000010, y=0
# time=                  225, s=5, e=01110111, y=1
# time=                  230, s=6, e=00010010, y=0
# time=                  235, s=1, e=01101101, y=0
# time=                  240, s=3, e=00011111, y=1
# time=                  245, s=0, e=10000101, y=1
# time=                  250, s=1, e=01011011, y=1
# time=                  255, s=2, e=00111111, y=1
# time=                  260, s=6, e=01011000, y=1
# time=                  265, s=4, e=10001110, y=0
# time=                  270, s=6, e=11111010, y=1
# time=                  275, s=3, e=01110011, y=0
# time=                  280, s=3, e=00101111, y=1
# time=                  285, s=4, e=01011111, y=1
# time=                  290, s=3, e=11110111, y=0
# time=                  295, s=2, e=11100110, y=1
# time=                  300, s=5, e=00101001, y=1
# time=                  305, s=5, e=11011010, y=0
# time=                  310, s=7, e=10110101, y=1
# time=                  315, s=4, e=01111001, y=1
# time=                  320, s=2, e=11010000, y=0
# time=                  325, s=6, e=10101011, y=0
# time=                  330, s=2, e=11011100, y=1
# time=                  335, s=3, e=11111101, y=1
# time=                  340, s=6, e=01010110, y=1
# time=                  345, s=2, e=01100111, y=1
# time=                  350, s=0, e=10110110, y=0
# time=                  355, s=0, e=01111001, y=1
# time=                  360, s=3, e=10010100, y=0
# time=                  365, s=1, e=00000100, y=0
# time=                  370, s=5, e=11011011, y=0
# time=                  375, s=5, e=11011001, y=0
# time=                  380, s=2, e=01110110, y=1
# time=                  385, s=5, e=10110110, y=1
# time=                  390, s=4, e=01000110, y=0
# time=                  395, s=1, e=11110111, y=1
# time=                  400, s=0, e=10110100, y=0
# time=                  405, s=5, e=00101000, y=1
# time=                  410, s=6, e=11000111, y=1
# time=                  415, s=4, e=00001000, y=0
# time=                  420, s=1, e=11111101, y=0
# time=                  425, s=6, e=00011100, y=0
# time=                  430, s=5, e=11011010, y=0
# time=                  435, s=0, e=01100110, y=0
# time=                  440, s=2, e=01110011, y=0
# time=                  445, s=2, e=01011110, y=1
# time=                  450, s=2, e=11010101, y=1
# time=                  455, s=7, e=10111001, y=1
# time=                  460, s=0, e=10010110, y=0
# time=                  465, s=6, e=00100110, y=0
# time=                  470, s=4, e=01111101, y=1
# time=                  475, s=0, e=10000110, y=0
# time=                  480, s=3, e=01111110, y=1
# time=                  485, s=1, e=11001111, y=1
# time=                  490, s=1, e=11111010, y=1
# time=                  495, s=1, e=00010111, y=1
# time=                  500, s=0, e=10000110, y=0
# time=                  505, s=5, e=11110101, y=1
# time=                  510, s=1, e=00101001, y=0
# time=                  515, s=0, e=11000101, y=1
# time=                  520, s=3, e=01001011, y=1
# time=                  525, s=2, e=11101100, y=1
# time=                  530, s=0, e=01001110, y=0
# time=                  535, s=1, e=10101001, y=0
# time=                  540, s=6, e=00001110, y=0
# time=                  545, s=2, e=10011111, y=1
# time=                  550, s=5, e=00101010, y=1
# time=                  555, s=0, e=10011110, y=0
# time=                  560, s=0, e=01111001, y=1
# time=                  565, s=3, e=11001010, y=1
# time=                  570, s=7, e=01101011, y=0
# time=                  575, s=2, e=10110110, y=1
# time=                  580, s=1, e=11000100, y=0
# time=                  585, s=4, e=10010010, y=1
# time=                  590, s=6, e=01111111, y=1
# time=                  595, s=2, e=11111010, y=0
# time=                  600, s=5, e=00110010, y=1
# time=                  605, s=4, e=10000100, y=0
# time=                  610, s=1, e=11001010, y=1
# time=                  615, s=6, e=10100001, y=0
# time=                  620, s=3, e=11111011, y=1
# time=                  625, s=1, e=11101111, y=1
# time=                  630, s=5, e=00110110, y=1
# time=                  635, s=3, e=10001111, y=1
# time=                  640, s=6, e=10001000, y=0
# time=                  645, s=2, e=10011011, y=0
# time=                  650, s=5, e=00101000, y=1
# time=                  655, s=2, e=01001011, y=0
# time=                  660, s=5, e=00011110, y=0
# time=                  665, s=0, e=11101100, y=0
# time=                  670, s=6, e=11010001, y=1
# time=                  675, s=3, e=01000001, y=0
# time=                  680, s=3, e=11011000, y=1
# time=                  685, s=3, e=01010110, y=0
# time=                  690, s=4, e=11100010, y=0
# time=                  695, s=0, e=01110011, y=1
# time=                  700, s=0, e=00010010, y=0
# time=                  705, s=5, e=00111001, y=1
# time=                  710, s=3, e=10100001, y=0
# time=                  715, s=0, e=10000001, y=1
# time=                  720, s=1, e=00100111, y=1
# time=                  725, s=4, e=00011111, y=1
# time=                  730, s=6, e=01011000, y=1
# time=                  735, s=2, e=00010100, y=1
# time=                  740, s=1, e=10010110, y=1
# time=                  745, s=5, e=01010101, y=0
# time=                  750, s=5, e=00101011, y=1
# time=                  755, s=7, e=10101101, y=1
# time=                  760, s=7, e=10000100, y=1
# time=                  765, s=1, e=11100111, y=1
# time=                  770, s=3, e=01001001, y=1
# time=                  775, s=1, e=11001001, y=0
# time=                  780, s=2, e=10100001, y=0
# time=                  785, s=5, e=11111010, y=1
# time=                  790, s=4, e=10000011, y=0
# time=                  795, s=6, e=01110010, y=1
# time=                  800, s=7, e=01101000, y=0
# time=                  805, s=0, e=10000110, y=0
# time=                  810, s=0, e=00111000, y=0
